<?xml version="1.0" encoding="UTF-8" standalone="no"?>
<svg
   xmlns:dc="http://purl.org/dc/elements/1.1/"
   xmlns:cc="http://creativecommons.org/ns#"
   xmlns:rdf="http://www.w3.org/1999/02/22-rdf-syntax-ns#"
   xmlns:svg="http://www.w3.org/2000/svg"
   xmlns="http://www.w3.org/2000/svg"
   xmlns:sodipodi="http://sodipodi.sourceforge.net/DTD/sodipodi-0.dtd"
   xmlns:inkscape="http://www.inkscape.org/namespaces/inkscape"
   width="800"
   height="600"
   viewBox="0 0 211.66667 158.75"
   version="1.1"
   id="svg8"
   inkscape:version="1.0.2 (e86c870879, 2021-01-15)"
   sodipodi:docname="testimage.svg"
   inkscape:export-filename="/home/fkotov/Documents/2022/023_SplashScreen/Raw_C_And_X11/testimage.png"
   inkscape:export-xdpi="96"
   inkscape:export-ydpi="96">
  <defs
     id="defs2">
    <rect
       x="9.7246245"
       y="3.2082266"
       width="189.32535"
       height="25.943159"
       id="rect893" />
    <rect
       x="22.091539"
       y="44.777748"
       width="46.145742"
       height="18.970764"
       id="rect887" />
    <inkscape:perspective
       sodipodi:type="inkscape:persp3d"
       inkscape:vp_x="0 : 79.375 : 1"
       inkscape:vp_y="0 : 1000 : 0"
       inkscape:vp_z="211.66667 : 79.375 : 1"
       inkscape:persp3d-origin="105.83334 : 52.916667 : 1"
       id="perspective10" />
  </defs>
  <sodipodi:namedview
     id="base"
     pagecolor="#ffffff"
     bordercolor="#666666"
     borderopacity="1.0"
     inkscape:pageopacity="1"
     inkscape:pageshadow="2"
     inkscape:zoom="0.82727996"
     inkscape:cx="110.11877"
     inkscape:cy="452.89644"
     inkscape:document-units="mm"
     inkscape:current-layer="layer1"
     inkscape:document-rotation="0"
     showgrid="false"
     units="px"
     inkscape:window-width="1920"
     inkscape:window-height="1016"
     inkscape:window-x="0"
     inkscape:window-y="0"
     inkscape:window-maximized="1" />
  <metadata
     id="metadata5">
    <rdf:RDF>
      <cc:Work
         rdf:about="">
        <dc:format>image/svg+xml</dc:format>
        <dc:type
           rdf:resource="http://purl.org/dc/dcmitype/StillImage" />
        <dc:title></dc:title>
      </cc:Work>
    </rdf:RDF>
  </metadata>
  <g
     inkscape:label="Layer 1"
     inkscape:groupmode="layer"
     id="layer1">
    <g
       id="g883"
       transform="matrix(1.1448944,0.6610051,-0.6610051,1.1448944,74.571752,-34.842083)">
      <circle
         style="fill:#ff0000;fill-opacity:0.5;fill-rule:evenodd;stroke-width:0.264583"
         id="path26"
         cx="-67.007957"
         cy="84.513107"
         r="26.477861"
         transform="rotate(-90)" />
      <circle
         style="fill:#00ff00;fill-opacity:0.5;fill-rule:evenodd;stroke-width:0.264583"
         id="path26-9"
         cx="32.115463"
         cy="95.309929"
         r="26.477861"
         inkscape:transform-center-x="30.332876"
         inkscape:transform-center-y="-31.994403"
         transform="rotate(-15.716317)" />
      <circle
         style="fill:#0000ff;fill-opacity:0.5;fill-rule:evenodd;stroke-width:0.264583"
         id="path26-2"
         cx="68.416992"
         cy="33.695713"
         r="26.477861"
         inkscape:transform-center-x="-56.780251"
         inkscape:transform-center-y="25.126089"
         transform="rotate(15.716354)" />
    </g>
    <text
       xml:space="preserve"
       id="text885"
       style="font-style:normal;font-weight:normal;font-size:10.5833px;line-height:1.25;font-family:sans-serif;white-space:pre;shape-inside:url(#rect887);fill:#000000;fill-opacity:1;stroke:none;"><tspan
         style="visibility:hidden"
         x="22.091797"
         y="73.111787"><tspan
           dx="0 7.2501802 6.7179146 6.7179136 2.9403801 6.4853725 5.5138569 6.7075806 6.7179146 5.8187485 4.1185951 6.5112152 6.5112076 6.7075806 3.3641205 6.4647064 6.6869049 5.5138626 4.1496048">XSplashScreen TEst
</tspan></tspan></text>
    <g
       aria-label="XSplashScreen Test"
       transform="rotate(-169.85131,25.124415,77.374772)"
       id="text891"
       style="font-style:normal;font-weight:normal;font-size:10.5833px;line-height:1.25;font-family:sans-serif;white-space:pre;fill:#000000;fill-opacity:1;stroke:none">
      <path
         d="m -5.8719084,116.22561 -4.1788086,2.28226 0.2009991,-2.06245 2.7979969,-1.53936 -2.4496316,-2.03521 0.2020017,-2.07273 3.6595189,3.04616 4.0093429,-2.19493 -0.2015005,2.06759 -2.637815,1.44074 2.310502,1.9178 -0.202503,2.07788 z"
         style="font-style:normal;font-variant:normal;font-weight:bold;font-stretch:normal;font-family:sans-serif;-inkscape-font-specification:'sans-serif Bold'"
         id="path1059" />
      <path
         d="m -4.7305338,126.93671 -1.5659595,-0.463 q 0.4527715,-0.52895 0.7629518,-1.06772 0.3101802,-0.53878 0.4625574,-1.05416 0.2021928,-0.68387 0.1105821,-1.06661 -0.091611,-0.38275 -0.4880562,-0.49996 -0.2973341,-0.0879 -0.5302907,0.0803 -0.2294662,0.17465 -0.5198241,0.71929 l -0.4038209,0.76436 q -0.6126045,1.16068 -1.2719148,1.53157 -0.6593103,0.37088 -1.5909572,0.0954 -1.2240251,-0.36189 -1.6082701,-1.26765 -0.380754,-0.89933 0.06026,-2.39095 0.208053,-0.7037 0.551372,-1.37278 0.343319,-0.66909 0.815483,-1.30008 l 1.6105597,0.47618 q -0.5861418,0.59729 -0.9742759,1.19924 -0.3846438,0.60837 -0.5663242,1.22286 -0.1846106,0.6244 -0.074643,1.01796 0.1099678,0.39356 0.4965022,0.50784 0.3468898,0.10257 0.602599,-0.0697 0.254244,-0.16733 0.6021735,-0.79733 l 0.3818434,-0.69003 q 0.5660642,-1.03972 1.2387761,-1.40126 0.6712467,-0.35658 1.5533378,-0.0958 1.1050918,0.32673 1.4887762,1.21616 0.3836844,0.88942 -0.01191,2.22742 -0.1802153,0.60954 -0.4648426,1.22592 -0.2796717,0.61785 -0.6666857,1.25247 z"
         style="font-style:normal;font-variant:normal;font-weight:bold;font-stretch:normal;font-family:sans-serif;-inkscape-font-specification:'sans-serif Bold'"
         id="path1061" />
      <path
         d="m -12.768041,128.88622 -2.707231,-1.37977 0.840067,-1.64828 7.1179905,3.62777 -0.8400665,1.64828 -0.755078,-0.38484 q 0.2775601,0.57067 0.2781604,1.09299 0.0052,0.52466 -0.2693426,1.06334 -0.4857367,0.95306 -1.5575108,1.17822 -1.067169,0.22752 -2.25964,-0.38024 -1.192471,-0.60776 -1.640061,-1.60729 -0.442986,-0.99718 0.04275,-1.95024 0.274547,-0.53868 0.697527,-0.84511 0.427585,-0.30409 1.052435,-0.41483 z m 2.7795168,2.79704 q 0.2698538,-0.52948 0.023989,-1.01439 -0.2436076,-0.47797 -0.9756646,-0.85107 -0.732057,-0.3731 -1.266549,-0.2917 -0.532233,0.0883 -0.802087,0.61782 -0.269854,0.52947 -0.0239,1.00283 0.243608,0.47796 0.980269,0.85341 0.736661,0.37545 1.266549,0.29171 0.52754,-0.0791 0.7973938,-0.60861 z"
         style="font-style:normal;font-variant:normal;font-weight:bold;font-stretch:normal;font-family:sans-serif;-inkscape-font-specification:'sans-serif Bold'"
         id="path1063" />
      <path
         d="m -9.7274849,138.06591 -1.0540121,1.5204 -6.608191,-4.58113 1.054013,-1.52039 z"
         style="font-style:normal;font-variant:normal;font-weight:bold;font-stretch:normal;font-family:sans-serif;-inkscape-font-specification:'sans-serif Bold'"
         id="path1065" />
      <path
         d="m -18.21631,140.14196 q 0.388165,-0.42931 0.440054,-0.77949 0.04842,-0.34636 -0.235228,-0.60282 -0.260653,-0.23568 -0.566104,-0.19835 -0.305084,0.0446 -0.58581,0.35511 -0.350042,0.38714 -0.313194,0.90117 0.04068,0.51748 0.458493,0.89525 l 0.157158,0.1421 z m -1.378297,2.5646 -2.44937,-2.21462 1.251138,-1.38376 0.6363,0.57532 q -0.141445,-0.62949 -0.0097,-1.13737 0.135595,-0.5044 0.582678,-0.99888 0.603042,-0.66696 1.367955,-0.73473 0.765282,-0.0605 1.386249,0.50098 0.755126,0.68276 0.639897,1.51908 -0.118695,0.84015 -1.123765,1.95176 l -0.731275,0.80879 0.107327,0.097 q 0.325816,0.29459 0.707514,0.17294 0.385531,-0.11819 0.877669,-0.6625 0.398562,-0.44081 0.65351,-0.9 0.254948,-0.45919 0.373214,-0.94443 l 1.046444,0.94615 q -0.291234,0.53785 -0.639598,1.03101 -0.344532,0.49663 -0.746559,0.94128 -1.050125,1.16144 -1.974512,1.25918 -0.92402,0.10505 -1.955132,-0.82724 z"
         style="font-style:normal;font-variant:normal;font-weight:bold;font-stretch:normal;font-family:sans-serif;-inkscape-font-specification:'sans-serif Bold'"
         id="path1067" />
      <path
         d="m -23.356225,148.8528 -0.878305,-1.09739 q 0.618967,-0.17769 1.12816,-0.42637 0.509194,-0.24868 0.892475,-0.55544 0.411523,-0.32936 0.529295,-0.59571 0.116966,-0.25909 -0.05418,-0.47292 -0.138849,-0.17349 -0.362396,-0.14681 -0.227581,0.0299 -0.654451,0.29875 l -0.283238,0.16712 q -1.222516,0.74679 -1.864122,0.73078 -0.641606,-0.016 -1.193776,-0.70591 -0.578002,-0.72218 -0.336058,-1.51152 0.241943,-0.78935 1.298993,-1.63536 0.447834,-0.35843 0.986068,-0.67007 0.53097,-0.31244 1.148305,-0.57486 l 0.878305,1.09739 q -0.599608,0.13572 -1.135432,0.39247 -0.539859,0.25999 -1.007865,0.63456 -0.423627,0.33905 -0.543815,0.62719 -0.120188,0.28815 0.06387,0.51812 0.154995,0.19365 0.378541,0.16697 0.222741,-0.0194 0.704484,-0.31893 l 0.280008,-0.17116 q 1.061128,-0.65071 1.709998,-0.6339 0.64887,0.0168 1.181665,0.68251 0.574773,0.71815 0.360258,1.45906 -0.214514,0.74092 -1.231219,1.55464 -0.399419,0.31968 -0.88762,0.61113 -0.488201,0.29145 -1.107952,0.57566 z"
         style="font-style:normal;font-variant:normal;font-weight:bold;font-stretch:normal;font-family:sans-serif;-inkscape-font-specification:'sans-serif Bold'"
         id="path1069" />
      <path
         d="m -31.67862,151.42848 -1.716964,-3.07781 1.624647,-0.90631 0.279447,0.50093 1.029675,1.84578 q 0.370079,0.6634 0.540134,0.89398 0.165543,0.23311 0.303205,0.31016 0.182885,0.10509 0.393183,0.1002 0.212816,-3.7e-4 0.42041,-0.11618 0.505445,-0.28196 0.575245,-0.83571 0.07232,-0.54923 -0.312866,-1.23971 l -1.387166,-2.48661 1.615621,-0.90128 3.917296,7.02208 -1.615621,0.90128 -1.510525,-2.70774 q -0.118827,0.64619 -0.413695,1.08288 -0.29235,0.4412 -0.78877,0.71813 -0.875504,0.4884 -1.626383,0.20312 -0.755391,-0.28276 -1.326873,-1.30719 z"
         style="font-style:normal;font-variant:normal;font-weight:bold;font-stretch:normal;font-family:sans-serif;-inkscape-font-specification:'sans-serif Bold'"
         id="path1071" />
      <path
         d="m -37.751773,157.87487 -0.522438,-1.54714 q 0.693141,0.0659 1.312267,0.01 0.619127,-0.0563 1.128313,-0.22829 0.675651,-0.22815 0.935963,-0.52331 0.260313,-0.29517 0.12805,-0.68685 -0.0992,-0.29376 -0.370834,-0.38748 -0.274879,-0.0872 -0.887392,-0.0112 l -0.857506,0.10957 q -1.301773,0.16686 -1.984491,-0.15894 -0.682717,-0.3258 -0.993534,-1.24625 -0.408362,-1.20931 0.111306,-2.04477 0.516425,-0.8289 1.990127,-1.32654 0.695235,-0.23476 1.440004,-0.33899 0.74477,-0.10423 1.532525,-0.0812 l 0.537318,1.59121 q -0.825781,-0.13568 -1.54143,-0.10674 -0.718891,0.0355 -1.325998,0.2405 -0.616899,0.20832 -0.875494,0.52472 -0.258595,0.3164 -0.129639,0.69829 0.11573,0.34272 0.403772,0.45272 0.283145,0.11165 0.998603,0.0337 l 0.784065,-0.0848 q 1.176066,-0.13532 1.858847,0.20682 0.677885,0.34379 0.97217,1.21528 0.368682,1.09182 -0.13795,1.91741 -0.506633,0.8256 -1.828559,1.27198 -0.60221,0.20336 -1.270105,0.32526 -0.666242,0.1268 -1.40796,0.17545 z"
         style="font-style:normal;font-variant:normal;font-weight:bold;font-stretch:normal;font-family:sans-serif;-inkscape-font-specification:'sans-serif Bold'"
         id="path1073" />
      <path
         d="m -46.002936,157.56416 -0.236777,-1.49025 q 0.413108,0.19598 0.810236,0.25846 0.392025,0.0633 0.79521,-7.6e-4 0.765542,-0.12163 1.122888,-0.63887 0.353053,-0.51131 0.225745,-1.31258 -0.127308,-0.80127 -0.622265,-1.18308 -0.49925,-0.3759 -1.264791,-0.25427 -0.428703,0.0681 -0.791202,0.25652 -0.367603,0.18922 -0.654501,0.49119 l -0.237587,-1.49536 q 0.403566,-0.22632 0.835417,-0.37342 0.425936,-0.1514 0.86995,-0.22194 1.546395,-0.2457 2.544798,0.4067 0.999215,0.6575 1.223828,2.0712 0.224613,1.4137 -0.522418,2.34342 -0.74622,0.93483 -2.292615,1.18052 -0.449117,0.0714 -0.895898,0.0586 -0.451074,-0.007 -0.910018,-0.0961 z"
         style="font-style:normal;font-variant:normal;font-weight:bold;font-stretch:normal;font-family:sans-serif;-inkscape-font-specification:'sans-serif Bold'"
         id="path1075" />
      <path
         d="m -52.696457,156.41639 q 0.245125,0.10876 0.488997,0.15552 0.238811,0.052 0.48164,0.0471 0.712987,-0.0144 1.09119,-0.48206 0.373142,-0.46238 0.35592,-1.31486 l -0.05386,-2.66596 1.849633,-0.0374 0.1169,5.78656 -1.849633,0.0374 -0.0192,-0.95065 q -0.345012,0.57552 -0.799618,0.84314 -0.459669,0.27289 -1.10549,0.28593 -0.093,0.002 -0.201705,-0.006 -0.108603,-0.003 -0.315787,-0.0246 z"
         style="font-style:normal;font-variant:normal;font-weight:bold;font-stretch:normal;font-family:sans-serif;-inkscape-font-specification:'sans-serif Bold'"
         id="path1077" />
      <path
         d="m -59.809989,154.3181 0.067,-0.52283 4.290221,0.54978 q 0.01613,-0.65438 -0.342297,-1.02853 -0.358424,-0.37415 -1.076024,-0.46611 -0.579205,-0.0742 -1.205715,0.0174 -0.632293,0.0961 -1.317672,0.36255 l 0.181289,-1.4147 q 0.682494,-0.16261 1.349223,-0.20221 0.667387,-0.0447 1.318352,0.0387 1.558217,0.19968 2.323308,1.10005 0.759309,0.90484 0.57605,2.33491 -0.179975,1.40444 -1.128842,2.1008 -0.953992,0.6957 -2.440449,0.50522 -1.353188,-0.17341 -2.058612,-1.09218 -0.710551,-0.91942 -0.53583,-2.28286 z m 1.808097,0.85167 q -0.067,0.52283 0.199821,0.88003 0.261036,0.36168 0.753104,0.42473 0.533074,0.0683 0.904999,-0.19141 0.371268,-0.25459 0.525533,-0.80791 z"
         style="font-style:normal;font-variant:normal;font-weight:bold;font-stretch:normal;font-family:sans-serif;-inkscape-font-specification:'sans-serif Bold'"
         id="path1079" />
      <path
         d="m -67.19447,152.16795 0.156204,-0.50342 4.131011,1.2818 q 0.128797,-0.64179 -0.159693,-1.07217 -0.288489,-0.43039 -0.979459,-0.64479 -0.557711,-0.17305 -1.190637,-0.19088 -0.639392,-0.0144 -1.360465,0.12975 l 0.42267,-1.36219 q 0.700316,-0.0424 1.363878,0.0336 0.665094,0.0711 1.291902,0.26559 1.500391,0.46555 2.098653,1.48443 0.591794,1.02228 0.164529,2.39928 -0.419607,1.35233 -1.474396,1.87452 -1.059725,0.52066 -2.491019,0.0765 -1.302972,-0.40429 -1.839285,-1.431 -0.54125,-1.02823 -0.133893,-2.34108 z m 1.634024,1.15089 q -0.156204,0.50342 0.04498,0.9013 0.194716,0.40129 0.668523,0.54831 0.513292,0.15927 0.924453,-0.0324 0.409629,-0.18671 0.657053,-0.70512 z"
         style="font-style:normal;font-variant:normal;font-weight:bold;font-stretch:normal;font-family:sans-serif;-inkscape-font-specification:'sans-serif Bold'"
         id="path1081" />
      <path
         d="m -74.421644,149.2817 1.623799,-3.12795 1.651121,0.85713 -0.264284,0.5091 -0.978564,1.88503 q -0.345236,0.66504 -0.444082,0.93396 -0.103433,0.26654 -0.09195,0.42388 0.01298,0.21052 0.132857,0.38338 0.117493,0.17744 0.32847,0.28697 0.513682,0.26666 1.014356,0.02 0.498293,-0.24205 0.862577,-0.94378 l 1.311895,-2.52713 1.641949,0.85237 -2.666648,5.13682 -1.641949,-0.85237 0.390474,-0.75218 q -0.604834,0.25662 -1.131724,0.25093 -0.529271,-0.001 -1.03378,-0.26301 -0.889772,-0.4619 -1.065085,-1.24578 -0.1799,-0.78626 0.360572,-1.82739 z"
         style="font-style:normal;font-variant:normal;font-weight:bold;font-stretch:normal;font-family:sans-serif;-inkscape-font-specification:'sans-serif Bold'"
         id="path1083" />
      <path
         d="m -81.694014,149.30642 -5.310448,-4.72869 1.000036,-1.12307 1.910372,1.70109 4.130733,-4.63892 1.485846,1.32307 -4.130734,4.63893 1.914231,1.70452 z"
         style="font-style:normal;font-variant:normal;font-weight:bold;font-stretch:normal;font-family:sans-serif;-inkscape-font-specification:'sans-serif Bold'"
         id="path1085" />
      <path
         d="m -87.394076,136.43725 0.407213,-0.33468 2.746334,3.34155 q 0.460373,-0.46533 0.455956,-0.98344 -0.0044,-0.51811 -0.46378,-1.07703 -0.370771,-0.45113 -0.889694,-0.81394 -0.526196,-0.36352 -1.207817,-0.63944 l 1.101871,-0.9056 q 0.608337,0.34952 1.12086,0.7778 0.516515,0.42499 0.933222,0.93201 0.997474,1.21365 0.937179,2.39365 -0.06757,1.17928 -1.181417,2.09472 -1.093886,0.89904 -2.262066,0.75546 -1.171462,-0.14758 -2.122999,-1.30534 -0.866227,-1.05396 -0.749878,-2.20645 0.113069,-1.15648 1.175016,-2.02927 z m 0.732386,1.85962 q -0.407213,0.33468 -0.457864,0.77765 -0.05793,0.44226 0.257066,0.82552 0.341241,0.4152 0.790061,0.4811 0.444828,0.0692 0.936478,-0.22786 z"
         style="font-style:normal;font-variant:normal;font-weight:bold;font-stretch:normal;font-family:sans-serif;-inkscape-font-specification:'sans-serif Bold'"
         id="path1087" />
      <path
         d="m -93.017034,132.30059 1.215426,-0.706 q 0.08401,0.63846 0.254489,1.17888 0.170485,0.54042 0.417065,0.96493 0.26475,0.45578 0.51071,0.61172 0.238896,0.15407 0.475725,0.0165 0.192145,-0.11161 0.198883,-0.33664 0.0041,-0.2295 -0.198476,-0.6915 l -0.123306,-0.30487 q -0.557389,-1.31968 -0.446492,-1.95183 0.110898,-0.63215 0.875008,-1.076 0.799857,-0.46461 1.544638,-0.10837 0.74478,0.35624 1.424824,1.52698 0.28811,0.496 0.516552,1.07447 0.230315,0.5714 0.398367,1.22081 l -1.215426,0.706 q -0.04537,-0.6131 -0.219893,-1.18105 -0.17712,-0.57243 -0.478208,-1.09077 -0.272537,-0.46919 -0.539689,-0.63075 -0.267152,-0.16156 -0.521855,-0.0136 -0.214487,0.12459 -0.221225,0.34962 -0.0138,0.22316 0.211026,0.74397 l 0.127774,0.30228 q 0.486291,1.14583 0.37352,1.78505 -0.11277,0.63921 -0.850069,1.06749 -0.795389,0.46201 -1.49634,0.14008 -0.70095,-0.32194 -1.355038,-1.44799 -0.256963,-0.44238 -0.472855,-0.96838 -0.215892,-0.526 -0.405135,-1.18102 z"
         style="font-style:normal;font-variant:normal;font-weight:bold;font-stretch:normal;font-family:sans-serif;-inkscape-font-specification:'sans-serif Bold'"
         id="path1089" />
      <path
         d="m -96.560772,128.81657 1.520454,-0.62344 -0.723421,-1.7643 1.224013,-0.50189 0.723421,1.7643 2.271118,-0.93123 q 0.372942,-0.15292 0.446043,-0.35603 0.06832,-0.20115 -0.112045,-0.64103 l -0.36073,-0.87976 1.224013,-0.50189 0.601871,1.46786 q 0.415623,1.01364 0.169352,1.6117 -0.253013,0.59523 -1.266649,1.01086 l -2.271118,0.93123 0.348967,0.85107 -1.224013,0.50189 -0.348967,-0.85107 -1.520454,0.62343 z"
         style="font-style:normal;font-variant:normal;font-weight:bold;font-stretch:normal;font-family:sans-serif;-inkscape-font-specification:'sans-serif Bold'"
         id="path1091" />
    </g>
    <text
       xml:space="preserve"
       id="text891-1"
       style="font-style:normal;font-weight:normal;font-size:10.5833px;line-height:1.25;font-family:sans-serif;white-space:pre;fill:#000000;fill-opacity:1;stroke:none"
       transform="rotate(-169.85131)"
       x="-9.4785102"
       y="110.58449"><tspan
         id="tspan895-5"
         style="font-style:normal;font-variant:normal;font-weight:bold;font-stretch:normal;font-family:sans-serif;-inkscape-font-specification:'sans-serif Bold'">XSplashScreen Test</tspan></text>
    <g
       aria-label="XSplashScreen Test"
       transform="rotate(-51.631571,27.301758,-81.415989)"
       id="text891-4"
       style="font-style:normal;font-weight:normal;font-size:10.5833px;line-height:1.25;font-family:sans-serif;white-space:pre;fill:#000000;fill-opacity:1;stroke:none">
      <path
         d="m -5.8719084,116.22561 -4.1788086,2.28226 0.2009991,-2.06245 2.7979969,-1.53936 -2.4496316,-2.03521 0.2020017,-2.07273 3.6595189,3.04616 4.0093429,-2.19493 -0.2015005,2.06759 -2.637815,1.44074 2.310502,1.9178 -0.202503,2.07788 z"
         style="font-style:normal;font-variant:normal;font-weight:bold;font-stretch:normal;font-family:sans-serif;-inkscape-font-specification:'sans-serif Bold'"
         id="path1094" />
      <path
         d="m -4.7305338,126.93671 -1.5659595,-0.463 q 0.4527715,-0.52895 0.7629518,-1.06772 0.3101802,-0.53878 0.4625574,-1.05416 0.2021928,-0.68387 0.1105821,-1.06661 -0.091611,-0.38275 -0.4880562,-0.49996 -0.2973341,-0.0879 -0.5302907,0.0803 -0.2294662,0.17465 -0.5198241,0.71929 l -0.4038209,0.76436 q -0.6126045,1.16068 -1.2719148,1.53157 -0.6593103,0.37088 -1.5909572,0.0954 -1.2240251,-0.36189 -1.6082701,-1.26765 -0.380754,-0.89933 0.06026,-2.39095 0.208053,-0.7037 0.551372,-1.37278 0.343319,-0.66909 0.815483,-1.30008 l 1.6105597,0.47618 q -0.5861418,0.59729 -0.9742759,1.19924 -0.3846438,0.60837 -0.5663242,1.22286 -0.1846106,0.6244 -0.074643,1.01796 0.1099678,0.39356 0.4965022,0.50784 0.3468898,0.10257 0.602599,-0.0697 0.254244,-0.16733 0.6021735,-0.79733 l 0.3818434,-0.69003 q 0.5660642,-1.03972 1.2387761,-1.40126 0.6712467,-0.35658 1.5533378,-0.0958 1.1050918,0.32673 1.4887762,1.21616 0.3836844,0.88942 -0.01191,2.22742 -0.1802153,0.60954 -0.4648426,1.22592 -0.2796717,0.61785 -0.6666857,1.25247 z"
         style="font-style:normal;font-variant:normal;font-weight:bold;font-stretch:normal;font-family:sans-serif;-inkscape-font-specification:'sans-serif Bold'"
         id="path1096" />
      <path
         d="m -12.768041,128.88622 -2.707231,-1.37977 0.840067,-1.64828 7.1179905,3.62777 -0.8400665,1.64828 -0.755078,-0.38484 q 0.2775601,0.57067 0.2781604,1.09299 0.0052,0.52466 -0.2693426,1.06334 -0.4857367,0.95306 -1.5575108,1.17822 -1.067169,0.22752 -2.25964,-0.38024 -1.192471,-0.60776 -1.640061,-1.60729 -0.442986,-0.99718 0.04275,-1.95024 0.274547,-0.53868 0.697527,-0.84511 0.427585,-0.30409 1.052435,-0.41483 z m 2.7795168,2.79704 q 0.2698538,-0.52948 0.023989,-1.01439 -0.2436076,-0.47797 -0.9756646,-0.85107 -0.732057,-0.3731 -1.266549,-0.2917 -0.532233,0.0883 -0.802087,0.61782 -0.269854,0.52947 -0.0239,1.00283 0.243608,0.47796 0.980269,0.85341 0.736661,0.37545 1.266549,0.29171 0.52754,-0.0791 0.7973938,-0.60861 z"
         style="font-style:normal;font-variant:normal;font-weight:bold;font-stretch:normal;font-family:sans-serif;-inkscape-font-specification:'sans-serif Bold'"
         id="path1098" />
      <path
         d="m -9.7274849,138.06591 -1.0540121,1.5204 -6.608191,-4.58113 1.054013,-1.52039 z"
         style="font-style:normal;font-variant:normal;font-weight:bold;font-stretch:normal;font-family:sans-serif;-inkscape-font-specification:'sans-serif Bold'"
         id="path1100" />
      <path
         d="m -18.21631,140.14196 q 0.388165,-0.42931 0.440054,-0.77949 0.04842,-0.34636 -0.235228,-0.60282 -0.260653,-0.23568 -0.566104,-0.19835 -0.305084,0.0446 -0.58581,0.35511 -0.350042,0.38714 -0.313194,0.90117 0.04068,0.51748 0.458493,0.89525 l 0.157158,0.1421 z m -1.378297,2.5646 -2.44937,-2.21462 1.251138,-1.38376 0.6363,0.57532 q -0.141445,-0.62949 -0.0097,-1.13737 0.135595,-0.5044 0.582678,-0.99888 0.603042,-0.66696 1.367955,-0.73473 0.765282,-0.0605 1.386249,0.50098 0.755126,0.68276 0.639897,1.51908 -0.118695,0.84015 -1.123765,1.95176 l -0.731275,0.80879 0.107327,0.097 q 0.325816,0.29459 0.707514,0.17294 0.385531,-0.11819 0.877669,-0.6625 0.398562,-0.44081 0.65351,-0.9 0.254948,-0.45919 0.373214,-0.94443 l 1.046444,0.94615 q -0.291234,0.53785 -0.639598,1.03101 -0.344532,0.49663 -0.746559,0.94128 -1.050125,1.16144 -1.974512,1.25918 -0.92402,0.10505 -1.955132,-0.82724 z"
         style="font-style:normal;font-variant:normal;font-weight:bold;font-stretch:normal;font-family:sans-serif;-inkscape-font-specification:'sans-serif Bold'"
         id="path1102" />
      <path
         d="m -23.356225,148.8528 -0.878305,-1.09739 q 0.618967,-0.17769 1.12816,-0.42637 0.509194,-0.24868 0.892475,-0.55544 0.411523,-0.32936 0.529295,-0.59571 0.116966,-0.25909 -0.05418,-0.47292 -0.138849,-0.17349 -0.362396,-0.14681 -0.227581,0.0299 -0.654451,0.29875 l -0.283238,0.16712 q -1.222516,0.74679 -1.864122,0.73078 -0.641606,-0.016 -1.193776,-0.70591 -0.578002,-0.72218 -0.336058,-1.51152 0.241943,-0.78935 1.298993,-1.63536 0.447834,-0.35843 0.986068,-0.67007 0.53097,-0.31244 1.148305,-0.57486 l 0.878305,1.09739 q -0.599608,0.13572 -1.135432,0.39247 -0.539859,0.25999 -1.007865,0.63456 -0.423627,0.33905 -0.543815,0.62719 -0.120188,0.28815 0.06387,0.51812 0.154995,0.19365 0.378541,0.16697 0.222741,-0.0194 0.704484,-0.31893 l 0.280008,-0.17116 q 1.061128,-0.65071 1.709998,-0.6339 0.64887,0.0168 1.181665,0.68251 0.574773,0.71815 0.360258,1.45906 -0.214514,0.74092 -1.231219,1.55464 -0.399419,0.31968 -0.88762,0.61113 -0.488201,0.29145 -1.107952,0.57566 z"
         style="font-style:normal;font-variant:normal;font-weight:bold;font-stretch:normal;font-family:sans-serif;-inkscape-font-specification:'sans-serif Bold'"
         id="path1104" />
      <path
         d="m -31.67862,151.42848 -1.716964,-3.07781 1.624647,-0.90631 0.279447,0.50093 1.029675,1.84578 q 0.370079,0.6634 0.540134,0.89398 0.165543,0.23311 0.303205,0.31016 0.182885,0.10509 0.393183,0.1002 0.212816,-3.7e-4 0.42041,-0.11618 0.505445,-0.28196 0.575245,-0.83571 0.07232,-0.54923 -0.312866,-1.23971 l -1.387166,-2.48661 1.615621,-0.90128 3.917296,7.02208 -1.615621,0.90128 -1.510525,-2.70774 q -0.118827,0.64619 -0.413695,1.08288 -0.29235,0.4412 -0.78877,0.71813 -0.875504,0.4884 -1.626383,0.20312 -0.755391,-0.28276 -1.326873,-1.30719 z"
         style="font-style:normal;font-variant:normal;font-weight:bold;font-stretch:normal;font-family:sans-serif;-inkscape-font-specification:'sans-serif Bold'"
         id="path1106" />
      <path
         d="m -37.751773,157.87487 -0.522438,-1.54714 q 0.693141,0.0659 1.312267,0.01 0.619127,-0.0563 1.128313,-0.22829 0.675651,-0.22815 0.935963,-0.52331 0.260313,-0.29517 0.12805,-0.68685 -0.0992,-0.29376 -0.370834,-0.38748 -0.274879,-0.0872 -0.887392,-0.0112 l -0.857506,0.10957 q -1.301773,0.16686 -1.984491,-0.15894 -0.682717,-0.3258 -0.993534,-1.24625 -0.408362,-1.20931 0.111306,-2.04477 0.516425,-0.8289 1.990127,-1.32654 0.695235,-0.23476 1.440004,-0.33899 0.74477,-0.10423 1.532525,-0.0812 l 0.537318,1.59121 q -0.825781,-0.13568 -1.54143,-0.10674 -0.718891,0.0355 -1.325998,0.2405 -0.616899,0.20832 -0.875494,0.52472 -0.258595,0.3164 -0.129639,0.69829 0.11573,0.34272 0.403772,0.45272 0.283145,0.11165 0.998603,0.0337 l 0.784065,-0.0848 q 1.176066,-0.13532 1.858847,0.20682 0.677885,0.34379 0.97217,1.21528 0.368682,1.09182 -0.13795,1.91741 -0.506633,0.8256 -1.828559,1.27198 -0.60221,0.20336 -1.270105,0.32526 -0.666242,0.1268 -1.40796,0.17545 z"
         style="font-style:normal;font-variant:normal;font-weight:bold;font-stretch:normal;font-family:sans-serif;-inkscape-font-specification:'sans-serif Bold'"
         id="path1108" />
      <path
         d="m -46.002936,157.56416 -0.236777,-1.49025 q 0.413108,0.19598 0.810236,0.25846 0.392025,0.0633 0.79521,-7.6e-4 0.765542,-0.12163 1.122888,-0.63887 0.353053,-0.51131 0.225745,-1.31258 -0.127308,-0.80127 -0.622265,-1.18308 -0.49925,-0.3759 -1.264791,-0.25427 -0.428703,0.0681 -0.791202,0.25652 -0.367603,0.18922 -0.654501,0.49119 l -0.237587,-1.49536 q 0.403566,-0.22632 0.835417,-0.37342 0.425936,-0.1514 0.86995,-0.22194 1.546395,-0.2457 2.544798,0.4067 0.999215,0.6575 1.223828,2.0712 0.224613,1.4137 -0.522418,2.34342 -0.74622,0.93483 -2.292615,1.18052 -0.449117,0.0714 -0.895898,0.0586 -0.451074,-0.007 -0.910018,-0.0961 z"
         style="font-style:normal;font-variant:normal;font-weight:bold;font-stretch:normal;font-family:sans-serif;-inkscape-font-specification:'sans-serif Bold'"
         id="path1110" />
      <path
         d="m -52.696457,156.41639 q 0.245125,0.10876 0.488997,0.15552 0.238811,0.052 0.48164,0.0471 0.712987,-0.0144 1.09119,-0.48206 0.373142,-0.46238 0.35592,-1.31486 l -0.05386,-2.66596 1.849633,-0.0374 0.1169,5.78656 -1.849633,0.0374 -0.0192,-0.95065 q -0.345012,0.57552 -0.799618,0.84314 -0.459669,0.27289 -1.10549,0.28593 -0.093,0.002 -0.201705,-0.006 -0.108603,-0.003 -0.315787,-0.0246 z"
         style="font-style:normal;font-variant:normal;font-weight:bold;font-stretch:normal;font-family:sans-serif;-inkscape-font-specification:'sans-serif Bold'"
         id="path1112" />
      <path
         d="m -59.809989,154.3181 0.067,-0.52283 4.290221,0.54978 q 0.01613,-0.65438 -0.342297,-1.02853 -0.358424,-0.37415 -1.076024,-0.46611 -0.579205,-0.0742 -1.205715,0.0174 -0.632293,0.0961 -1.317672,0.36255 l 0.181289,-1.4147 q 0.682494,-0.16261 1.349223,-0.20221 0.667387,-0.0447 1.318352,0.0387 1.558217,0.19968 2.323308,1.10005 0.759309,0.90484 0.57605,2.33491 -0.179975,1.40444 -1.128842,2.1008 -0.953992,0.6957 -2.440449,0.50522 -1.353188,-0.17341 -2.058612,-1.09218 -0.710551,-0.91942 -0.53583,-2.28286 z m 1.808097,0.85167 q -0.067,0.52283 0.199821,0.88003 0.261036,0.36168 0.753104,0.42473 0.533074,0.0683 0.904999,-0.19141 0.371268,-0.25459 0.525533,-0.80791 z"
         style="font-style:normal;font-variant:normal;font-weight:bold;font-stretch:normal;font-family:sans-serif;-inkscape-font-specification:'sans-serif Bold'"
         id="path1114" />
      <path
         d="m -67.19447,152.16795 0.156204,-0.50342 4.131011,1.2818 q 0.128797,-0.64179 -0.159693,-1.07217 -0.288489,-0.43039 -0.979459,-0.64479 -0.557711,-0.17305 -1.190637,-0.19088 -0.639392,-0.0144 -1.360465,0.12975 l 0.42267,-1.36219 q 0.700316,-0.0424 1.363878,0.0336 0.665094,0.0711 1.291902,0.26559 1.500391,0.46555 2.098653,1.48443 0.591794,1.02228 0.164529,2.39928 -0.419607,1.35233 -1.474396,1.87452 -1.059725,0.52066 -2.491019,0.0765 -1.302972,-0.40429 -1.839285,-1.431 -0.54125,-1.02823 -0.133893,-2.34108 z m 1.634024,1.15089 q -0.156204,0.50342 0.04498,0.9013 0.194716,0.40129 0.668523,0.54831 0.513292,0.15927 0.924453,-0.0324 0.409629,-0.18671 0.657053,-0.70512 z"
         style="font-style:normal;font-variant:normal;font-weight:bold;font-stretch:normal;font-family:sans-serif;-inkscape-font-specification:'sans-serif Bold'"
         id="path1116" />
      <path
         d="m -74.421644,149.2817 1.623799,-3.12795 1.651121,0.85713 -0.264284,0.5091 -0.978564,1.88503 q -0.345236,0.66504 -0.444082,0.93396 -0.103433,0.26654 -0.09195,0.42388 0.01298,0.21052 0.132857,0.38338 0.117493,0.17744 0.32847,0.28697 0.513682,0.26666 1.014356,0.02 0.498293,-0.24205 0.862577,-0.94378 l 1.311895,-2.52713 1.641949,0.85237 -2.666648,5.13682 -1.641949,-0.85237 0.390474,-0.75218 q -0.604834,0.25662 -1.131724,0.25093 -0.529271,-0.001 -1.03378,-0.26301 -0.889772,-0.4619 -1.065085,-1.24578 -0.1799,-0.78626 0.360572,-1.82739 z"
         style="font-style:normal;font-variant:normal;font-weight:bold;font-stretch:normal;font-family:sans-serif;-inkscape-font-specification:'sans-serif Bold'"
         id="path1118" />
      <path
         d="m -81.694014,149.30642 -5.310448,-4.72869 1.000036,-1.12307 1.910372,1.70109 4.130733,-4.63892 1.485846,1.32307 -4.130734,4.63893 1.914231,1.70452 z"
         style="font-style:normal;font-variant:normal;font-weight:bold;font-stretch:normal;font-family:sans-serif;-inkscape-font-specification:'sans-serif Bold'"
         id="path1120" />
      <path
         d="m -87.394076,136.43725 0.407213,-0.33468 2.746334,3.34155 q 0.460373,-0.46533 0.455956,-0.98344 -0.0044,-0.51811 -0.46378,-1.07703 -0.370771,-0.45113 -0.889694,-0.81394 -0.526196,-0.36352 -1.207817,-0.63944 l 1.101871,-0.9056 q 0.608337,0.34952 1.12086,0.7778 0.516515,0.42499 0.933222,0.93201 0.997474,1.21365 0.937179,2.39365 -0.06757,1.17928 -1.181417,2.09472 -1.093886,0.89904 -2.262066,0.75546 -1.171462,-0.14758 -2.122999,-1.30534 -0.866227,-1.05396 -0.749878,-2.20645 0.113069,-1.15648 1.175016,-2.02927 z m 0.732386,1.85962 q -0.407213,0.33468 -0.457864,0.77765 -0.05793,0.44226 0.257066,0.82552 0.341241,0.4152 0.790061,0.4811 0.444828,0.0692 0.936478,-0.22786 z"
         style="font-style:normal;font-variant:normal;font-weight:bold;font-stretch:normal;font-family:sans-serif;-inkscape-font-specification:'sans-serif Bold'"
         id="path1122" />
      <path
         d="m -93.017034,132.30059 1.215426,-0.706 q 0.08401,0.63846 0.254489,1.17888 0.170485,0.54042 0.417065,0.96493 0.26475,0.45578 0.51071,0.61172 0.238896,0.15407 0.475725,0.0165 0.192145,-0.11161 0.198883,-0.33664 0.0041,-0.2295 -0.198476,-0.6915 l -0.123306,-0.30487 q -0.557389,-1.31968 -0.446492,-1.95183 0.110898,-0.63215 0.875008,-1.076 0.799857,-0.46461 1.544638,-0.10837 0.74478,0.35624 1.424824,1.52698 0.28811,0.496 0.516552,1.07447 0.230315,0.5714 0.398367,1.22081 l -1.215426,0.706 q -0.04537,-0.6131 -0.219893,-1.18105 -0.17712,-0.57243 -0.478208,-1.09077 -0.272537,-0.46919 -0.539689,-0.63075 -0.267152,-0.16156 -0.521855,-0.0136 -0.214487,0.12459 -0.221225,0.34962 -0.0138,0.22316 0.211026,0.74397 l 0.127774,0.30228 q 0.486291,1.14583 0.37352,1.78505 -0.11277,0.63921 -0.850069,1.06749 -0.795389,0.46201 -1.49634,0.14008 -0.70095,-0.32194 -1.355038,-1.44799 -0.256963,-0.44238 -0.472855,-0.96838 -0.215892,-0.526 -0.405135,-1.18102 z"
         style="font-style:normal;font-variant:normal;font-weight:bold;font-stretch:normal;font-family:sans-serif;-inkscape-font-specification:'sans-serif Bold'"
         id="path1124" />
      <path
         d="m -96.560772,128.81657 1.520454,-0.62344 -0.723421,-1.7643 1.224013,-0.50189 0.723421,1.7643 2.271118,-0.93123 q 0.372942,-0.15292 0.446043,-0.35603 0.06832,-0.20115 -0.112045,-0.64103 l -0.36073,-0.87976 1.224013,-0.50189 0.601871,1.46786 q 0.415623,1.01364 0.169352,1.6117 -0.253013,0.59523 -1.266649,1.01086 l -2.271118,0.93123 0.348967,0.85107 -1.224013,0.50189 -0.348967,-0.85107 -1.520454,0.62343 z"
         style="font-style:normal;font-variant:normal;font-weight:bold;font-stretch:normal;font-family:sans-serif;-inkscape-font-specification:'sans-serif Bold'"
         id="path1126" />
    </g>
    <g
       aria-label="XSplashScreen Test"
       transform="rotate(65.09441,23.385867,208.21278)"
       id="text891-4-8"
       style="font-style:normal;font-weight:normal;font-size:10.5833px;line-height:1.25;font-family:sans-serif;white-space:pre;fill:#000000;fill-opacity:1;stroke:none">
      <path
         d="m -5.8719084,116.22561 -4.1788086,2.28226 0.2009991,-2.06245 2.7979969,-1.53936 -2.4496316,-2.03521 0.2020017,-2.07273 3.6595189,3.04616 4.0093429,-2.19493 -0.2015005,2.06759 -2.637815,1.44074 2.310502,1.9178 -0.202503,2.07788 z"
         style="font-style:normal;font-variant:normal;font-weight:bold;font-stretch:normal;font-family:sans-serif;-inkscape-font-specification:'sans-serif Bold'"
         id="path1024" />
      <path
         d="m -4.7305338,126.93671 -1.5659595,-0.463 q 0.4527715,-0.52895 0.7629518,-1.06772 0.3101802,-0.53878 0.4625574,-1.05416 0.2021928,-0.68387 0.1105821,-1.06661 -0.091611,-0.38275 -0.4880562,-0.49996 -0.2973341,-0.0879 -0.5302907,0.0803 -0.2294662,0.17465 -0.5198241,0.71929 l -0.4038209,0.76436 q -0.6126045,1.16068 -1.2719148,1.53157 -0.6593103,0.37088 -1.5909572,0.0954 -1.2240251,-0.36189 -1.6082701,-1.26765 -0.380754,-0.89933 0.06026,-2.39095 0.208053,-0.7037 0.551372,-1.37278 0.343319,-0.66909 0.815483,-1.30008 l 1.6105597,0.47618 q -0.5861418,0.59729 -0.9742759,1.19924 -0.3846438,0.60837 -0.5663242,1.22286 -0.1846106,0.6244 -0.074643,1.01796 0.1099678,0.39356 0.4965022,0.50784 0.3468898,0.10257 0.602599,-0.0697 0.254244,-0.16733 0.6021735,-0.79733 l 0.3818434,-0.69003 q 0.5660642,-1.03972 1.2387761,-1.40126 0.6712467,-0.35658 1.5533378,-0.0958 1.1050918,0.32673 1.4887762,1.21616 0.3836844,0.88942 -0.01191,2.22742 -0.1802153,0.60954 -0.4648426,1.22592 -0.2796717,0.61785 -0.6666857,1.25247 z"
         style="font-style:normal;font-variant:normal;font-weight:bold;font-stretch:normal;font-family:sans-serif;-inkscape-font-specification:'sans-serif Bold'"
         id="path1026" />
      <path
         d="m -12.768041,128.88622 -2.707231,-1.37977 0.840067,-1.64828 7.1179905,3.62777 -0.8400665,1.64828 -0.755078,-0.38484 q 0.2775601,0.57067 0.2781604,1.09299 0.0052,0.52466 -0.2693426,1.06334 -0.4857367,0.95306 -1.5575108,1.17822 -1.067169,0.22752 -2.25964,-0.38024 -1.192471,-0.60776 -1.640061,-1.60729 -0.442986,-0.99718 0.04275,-1.95024 0.274547,-0.53868 0.697527,-0.84511 0.427585,-0.30409 1.052435,-0.41483 z m 2.7795168,2.79704 q 0.2698538,-0.52948 0.023989,-1.01439 -0.2436076,-0.47797 -0.9756646,-0.85107 -0.732057,-0.3731 -1.266549,-0.2917 -0.532233,0.0883 -0.802087,0.61782 -0.269854,0.52947 -0.0239,1.00283 0.243608,0.47796 0.980269,0.85341 0.736661,0.37545 1.266549,0.29171 0.52754,-0.0791 0.7973938,-0.60861 z"
         style="font-style:normal;font-variant:normal;font-weight:bold;font-stretch:normal;font-family:sans-serif;-inkscape-font-specification:'sans-serif Bold'"
         id="path1028" />
      <path
         d="m -9.7274849,138.06591 -1.0540121,1.5204 -6.608191,-4.58113 1.054013,-1.52039 z"
         style="font-style:normal;font-variant:normal;font-weight:bold;font-stretch:normal;font-family:sans-serif;-inkscape-font-specification:'sans-serif Bold'"
         id="path1030" />
      <path
         d="m -18.21631,140.14196 q 0.388165,-0.42931 0.440054,-0.77949 0.04842,-0.34636 -0.235228,-0.60282 -0.260653,-0.23568 -0.566104,-0.19835 -0.305084,0.0446 -0.58581,0.35511 -0.350042,0.38714 -0.313194,0.90117 0.04068,0.51748 0.458493,0.89525 l 0.157158,0.1421 z m -1.378297,2.5646 -2.44937,-2.21462 1.251138,-1.38376 0.6363,0.57532 q -0.141445,-0.62949 -0.0097,-1.13737 0.135595,-0.5044 0.582678,-0.99888 0.603042,-0.66696 1.367955,-0.73473 0.765282,-0.0605 1.386249,0.50098 0.755126,0.68276 0.639897,1.51908 -0.118695,0.84015 -1.123765,1.95176 l -0.731275,0.80879 0.107327,0.097 q 0.325816,0.29459 0.707514,0.17294 0.385531,-0.11819 0.877669,-0.6625 0.398562,-0.44081 0.65351,-0.9 0.254948,-0.45919 0.373214,-0.94443 l 1.046444,0.94615 q -0.291234,0.53785 -0.639598,1.03101 -0.344532,0.49663 -0.746559,0.94128 -1.050125,1.16144 -1.974512,1.25918 -0.92402,0.10505 -1.955132,-0.82724 z"
         style="font-style:normal;font-variant:normal;font-weight:bold;font-stretch:normal;font-family:sans-serif;-inkscape-font-specification:'sans-serif Bold'"
         id="path1032" />
      <path
         d="m -23.356225,148.8528 -0.878305,-1.09739 q 0.618967,-0.17769 1.12816,-0.42637 0.509194,-0.24868 0.892475,-0.55544 0.411523,-0.32936 0.529295,-0.59571 0.116966,-0.25909 -0.05418,-0.47292 -0.138849,-0.17349 -0.362396,-0.14681 -0.227581,0.0299 -0.654451,0.29875 l -0.283238,0.16712 q -1.222516,0.74679 -1.864122,0.73078 -0.641606,-0.016 -1.193776,-0.70591 -0.578002,-0.72218 -0.336058,-1.51152 0.241943,-0.78935 1.298993,-1.63536 0.447834,-0.35843 0.986068,-0.67007 0.53097,-0.31244 1.148305,-0.57486 l 0.878305,1.09739 q -0.599608,0.13572 -1.135432,0.39247 -0.539859,0.25999 -1.007865,0.63456 -0.423627,0.33905 -0.543815,0.62719 -0.120188,0.28815 0.06387,0.51812 0.154995,0.19365 0.378541,0.16697 0.222741,-0.0194 0.704484,-0.31893 l 0.280008,-0.17116 q 1.061128,-0.65071 1.709998,-0.6339 0.64887,0.0168 1.181665,0.68251 0.574773,0.71815 0.360258,1.45906 -0.214514,0.74092 -1.231219,1.55464 -0.399419,0.31968 -0.88762,0.61113 -0.488201,0.29145 -1.107952,0.57566 z"
         style="font-style:normal;font-variant:normal;font-weight:bold;font-stretch:normal;font-family:sans-serif;-inkscape-font-specification:'sans-serif Bold'"
         id="path1034" />
      <path
         d="m -31.67862,151.42848 -1.716964,-3.07781 1.624647,-0.90631 0.279447,0.50093 1.029675,1.84578 q 0.370079,0.6634 0.540134,0.89398 0.165543,0.23311 0.303205,0.31016 0.182885,0.10509 0.393183,0.1002 0.212816,-3.7e-4 0.42041,-0.11618 0.505445,-0.28196 0.575245,-0.83571 0.07232,-0.54923 -0.312866,-1.23971 l -1.387166,-2.48661 1.615621,-0.90128 3.917296,7.02208 -1.615621,0.90128 -1.510525,-2.70774 q -0.118827,0.64619 -0.413695,1.08288 -0.29235,0.4412 -0.78877,0.71813 -0.875504,0.4884 -1.626383,0.20312 -0.755391,-0.28276 -1.326873,-1.30719 z"
         style="font-style:normal;font-variant:normal;font-weight:bold;font-stretch:normal;font-family:sans-serif;-inkscape-font-specification:'sans-serif Bold'"
         id="path1036" />
      <path
         d="m -37.751773,157.87487 -0.522438,-1.54714 q 0.693141,0.0659 1.312267,0.01 0.619127,-0.0563 1.128313,-0.22829 0.675651,-0.22815 0.935963,-0.52331 0.260313,-0.29517 0.12805,-0.68685 -0.0992,-0.29376 -0.370834,-0.38748 -0.274879,-0.0872 -0.887392,-0.0112 l -0.857506,0.10957 q -1.301773,0.16686 -1.984491,-0.15894 -0.682717,-0.3258 -0.993534,-1.24625 -0.408362,-1.20931 0.111306,-2.04477 0.516425,-0.8289 1.990127,-1.32654 0.695235,-0.23476 1.440004,-0.33899 0.74477,-0.10423 1.532525,-0.0812 l 0.537318,1.59121 q -0.825781,-0.13568 -1.54143,-0.10674 -0.718891,0.0355 -1.325998,0.2405 -0.616899,0.20832 -0.875494,0.52472 -0.258595,0.3164 -0.129639,0.69829 0.11573,0.34272 0.403772,0.45272 0.283145,0.11165 0.998603,0.0337 l 0.784065,-0.0848 q 1.176066,-0.13532 1.858847,0.20682 0.677885,0.34379 0.97217,1.21528 0.368682,1.09182 -0.13795,1.91741 -0.506633,0.8256 -1.828559,1.27198 -0.60221,0.20336 -1.270105,0.32526 -0.666242,0.1268 -1.40796,0.17545 z"
         style="font-style:normal;font-variant:normal;font-weight:bold;font-stretch:normal;font-family:sans-serif;-inkscape-font-specification:'sans-serif Bold'"
         id="path1038" />
      <path
         d="m -46.002936,157.56416 -0.236777,-1.49025 q 0.413108,0.19598 0.810236,0.25846 0.392025,0.0633 0.79521,-7.6e-4 0.765542,-0.12163 1.122888,-0.63887 0.353053,-0.51131 0.225745,-1.31258 -0.127308,-0.80127 -0.622265,-1.18308 -0.49925,-0.3759 -1.264791,-0.25427 -0.428703,0.0681 -0.791202,0.25652 -0.367603,0.18922 -0.654501,0.49119 l -0.237587,-1.49536 q 0.403566,-0.22632 0.835417,-0.37342 0.425936,-0.1514 0.86995,-0.22194 1.546395,-0.2457 2.544798,0.4067 0.999215,0.6575 1.223828,2.0712 0.224613,1.4137 -0.522418,2.34342 -0.74622,0.93483 -2.292615,1.18052 -0.449117,0.0714 -0.895898,0.0586 -0.451074,-0.007 -0.910018,-0.0961 z"
         style="font-style:normal;font-variant:normal;font-weight:bold;font-stretch:normal;font-family:sans-serif;-inkscape-font-specification:'sans-serif Bold'"
         id="path1040" />
      <path
         d="m -52.696457,156.41639 q 0.245125,0.10876 0.488997,0.15552 0.238811,0.052 0.48164,0.0471 0.712987,-0.0144 1.09119,-0.48206 0.373142,-0.46238 0.35592,-1.31486 l -0.05386,-2.66596 1.849633,-0.0374 0.1169,5.78656 -1.849633,0.0374 -0.0192,-0.95065 q -0.345012,0.57552 -0.799618,0.84314 -0.459669,0.27289 -1.10549,0.28593 -0.093,0.002 -0.201705,-0.006 -0.108603,-0.003 -0.315787,-0.0246 z"
         style="font-style:normal;font-variant:normal;font-weight:bold;font-stretch:normal;font-family:sans-serif;-inkscape-font-specification:'sans-serif Bold'"
         id="path1042" />
      <path
         d="m -59.809989,154.3181 0.067,-0.52283 4.290221,0.54978 q 0.01613,-0.65438 -0.342297,-1.02853 -0.358424,-0.37415 -1.076024,-0.46611 -0.579205,-0.0742 -1.205715,0.0174 -0.632293,0.0961 -1.317672,0.36255 l 0.181289,-1.4147 q 0.682494,-0.16261 1.349223,-0.20221 0.667387,-0.0447 1.318352,0.0387 1.558217,0.19968 2.323308,1.10005 0.759309,0.90484 0.57605,2.33491 -0.179975,1.40444 -1.128842,2.1008 -0.953992,0.6957 -2.440449,0.50522 -1.353188,-0.17341 -2.058612,-1.09218 -0.710551,-0.91942 -0.53583,-2.28286 z m 1.808097,0.85167 q -0.067,0.52283 0.199821,0.88003 0.261036,0.36168 0.753104,0.42473 0.533074,0.0683 0.904999,-0.19141 0.371268,-0.25459 0.525533,-0.80791 z"
         style="font-style:normal;font-variant:normal;font-weight:bold;font-stretch:normal;font-family:sans-serif;-inkscape-font-specification:'sans-serif Bold'"
         id="path1044" />
      <path
         d="m -67.19447,152.16795 0.156204,-0.50342 4.131011,1.2818 q 0.128797,-0.64179 -0.159693,-1.07217 -0.288489,-0.43039 -0.979459,-0.64479 -0.557711,-0.17305 -1.190637,-0.19088 -0.639392,-0.0144 -1.360465,0.12975 l 0.42267,-1.36219 q 0.700316,-0.0424 1.363878,0.0336 0.665094,0.0711 1.291902,0.26559 1.500391,0.46555 2.098653,1.48443 0.591794,1.02228 0.164529,2.39928 -0.419607,1.35233 -1.474396,1.87452 -1.059725,0.52066 -2.491019,0.0765 -1.302972,-0.40429 -1.839285,-1.431 -0.54125,-1.02823 -0.133893,-2.34108 z m 1.634024,1.15089 q -0.156204,0.50342 0.04498,0.9013 0.194716,0.40129 0.668523,0.54831 0.513292,0.15927 0.924453,-0.0324 0.409629,-0.18671 0.657053,-0.70512 z"
         style="font-style:normal;font-variant:normal;font-weight:bold;font-stretch:normal;font-family:sans-serif;-inkscape-font-specification:'sans-serif Bold'"
         id="path1046" />
      <path
         d="m -74.421644,149.2817 1.623799,-3.12795 1.651121,0.85713 -0.264284,0.5091 -0.978564,1.88503 q -0.345236,0.66504 -0.444082,0.93396 -0.103433,0.26654 -0.09195,0.42388 0.01298,0.21052 0.132857,0.38338 0.117493,0.17744 0.32847,0.28697 0.513682,0.26666 1.014356,0.02 0.498293,-0.24205 0.862577,-0.94378 l 1.311895,-2.52713 1.641949,0.85237 -2.666648,5.13682 -1.641949,-0.85237 0.390474,-0.75218 q -0.604834,0.25662 -1.131724,0.25093 -0.529271,-0.001 -1.03378,-0.26301 -0.889772,-0.4619 -1.065085,-1.24578 -0.1799,-0.78626 0.360572,-1.82739 z"
         style="font-style:normal;font-variant:normal;font-weight:bold;font-stretch:normal;font-family:sans-serif;-inkscape-font-specification:'sans-serif Bold'"
         id="path1048" />
      <path
         d="m -81.694014,149.30642 -5.310448,-4.72869 1.000036,-1.12307 1.910372,1.70109 4.130733,-4.63892 1.485846,1.32307 -4.130734,4.63893 1.914231,1.70452 z"
         style="font-style:normal;font-variant:normal;font-weight:bold;font-stretch:normal;font-family:sans-serif;-inkscape-font-specification:'sans-serif Bold'"
         id="path1050" />
      <path
         d="m -87.394076,136.43725 0.407213,-0.33468 2.746334,3.34155 q 0.460373,-0.46533 0.455956,-0.98344 -0.0044,-0.51811 -0.46378,-1.07703 -0.370771,-0.45113 -0.889694,-0.81394 -0.526196,-0.36352 -1.207817,-0.63944 l 1.101871,-0.9056 q 0.608337,0.34952 1.12086,0.7778 0.516515,0.42499 0.933222,0.93201 0.997474,1.21365 0.937179,2.39365 -0.06757,1.17928 -1.181417,2.09472 -1.093886,0.89904 -2.262066,0.75546 -1.171462,-0.14758 -2.122999,-1.30534 -0.866227,-1.05396 -0.749878,-2.20645 0.113069,-1.15648 1.175016,-2.02927 z m 0.732386,1.85962 q -0.407213,0.33468 -0.457864,0.77765 -0.05793,0.44226 0.257066,0.82552 0.341241,0.4152 0.790061,0.4811 0.444828,0.0692 0.936478,-0.22786 z"
         style="font-style:normal;font-variant:normal;font-weight:bold;font-stretch:normal;font-family:sans-serif;-inkscape-font-specification:'sans-serif Bold'"
         id="path1052" />
      <path
         d="m -93.017034,132.30059 1.215426,-0.706 q 0.08401,0.63846 0.254489,1.17888 0.170485,0.54042 0.417065,0.96493 0.26475,0.45578 0.51071,0.61172 0.238896,0.15407 0.475725,0.0165 0.192145,-0.11161 0.198883,-0.33664 0.0041,-0.2295 -0.198476,-0.6915 l -0.123306,-0.30487 q -0.557389,-1.31968 -0.446492,-1.95183 0.110898,-0.63215 0.875008,-1.076 0.799857,-0.46461 1.544638,-0.10837 0.74478,0.35624 1.424824,1.52698 0.28811,0.496 0.516552,1.07447 0.230315,0.5714 0.398367,1.22081 l -1.215426,0.706 q -0.04537,-0.6131 -0.219893,-1.18105 -0.17712,-0.57243 -0.478208,-1.09077 -0.272537,-0.46919 -0.539689,-0.63075 -0.267152,-0.16156 -0.521855,-0.0136 -0.214487,0.12459 -0.221225,0.34962 -0.0138,0.22316 0.211026,0.74397 l 0.127774,0.30228 q 0.486291,1.14583 0.37352,1.78505 -0.11277,0.63921 -0.850069,1.06749 -0.795389,0.46201 -1.49634,0.14008 -0.70095,-0.32194 -1.355038,-1.44799 -0.256963,-0.44238 -0.472855,-0.96838 -0.215892,-0.526 -0.405135,-1.18102 z"
         style="font-style:normal;font-variant:normal;font-weight:bold;font-stretch:normal;font-family:sans-serif;-inkscape-font-specification:'sans-serif Bold'"
         id="path1054" />
      <path
         d="m -96.560772,128.81657 1.520454,-0.62344 -0.723421,-1.7643 1.224013,-0.50189 0.723421,1.7643 2.271118,-0.93123 q 0.372942,-0.15292 0.446043,-0.35603 0.06832,-0.20115 -0.112045,-0.64103 l -0.36073,-0.87976 1.224013,-0.50189 0.601871,1.46786 q 0.415623,1.01364 0.169352,1.6117 -0.253013,0.59523 -1.266649,1.01086 l -2.271118,0.93123 0.348967,0.85107 -1.224013,0.50189 -0.348967,-0.85107 -1.520454,0.62343 z"
         style="font-style:normal;font-variant:normal;font-weight:bold;font-stretch:normal;font-family:sans-serif;-inkscape-font-specification:'sans-serif Bold'"
         id="path1056" />
    </g>
  </g>
</svg>
